inrec fields = (c'Javi1',1:2,2,1:2,2,c'Javi2',1,100,100X)
SORT FIELDS = (1,2,A,3,4,D,5,6,A)
INCLUDE COND = (1,5,CH,EQ,C'Javi3',OR,1,2,CH,EQ,'Javi4')
omit COND = (1,2,CH,EQ,'Javi5',AND,3,2,CH,EQ,C'Javi6')
outrec fields = (c'Javi7',1:2,2,1:2,2,c'Javi8',1,100,100X)
sum fields = (1,2,100,3)
