{
  "auth": {
    "type": "noauth"
  },
  "method": "POST",
  "header": [
    {
      "key": "Authorization",
      "value": "{{sso_access_token}}",
      "type": "text"
    }
  ],
  "body": {
    "mode": "graphql",
    "graphql": {
      "query": "{{datadomain_payload}}",
      "variables": ""
    }
  },
  "url": {
    "host": [
      "{{api.datadomainapi.basepath}}/data-domain/"
    ]
  }
}
