{
  "auth": {
    "type": "noauth"
  },
  "method": "POST",
  "header": [
    {
      "key": "Authorization",
      "value": "{{sso_access_token}}",
      "type": "text"
    }
  ],
  "body": {
    "mode": "graphql",
    "graphql": {
      "query": "{\n    paymentEvent(fieldCriteria: [\n        {fieldName: \"paymentHubId\" value: \"{{paymentHubIdCamt056DataDomain}}\" searchCriteria: EXACT_MATCH}\n    ], pagination: {\n      pageSize: 30,\n      page: 0\n    })\n    {\n        data {\n            eventName\n         }\n    }\n}",
      "variables": ""
    }
  },
  "url": {
    "host": [
      "{{api.datadomainapi.basepath}}/data-domain/"
    ]
  }
}
