{
	"info": {
		"_postman_id": "540e3959-25c2-4f0f-a669-06f4cc40b7c2",
		"name": "SLASER",
		"schema": "https://schema.getpostman.com/json/collection/v2.1.0/collection.json"
	},
	"item": [
		{
			"name": "Appointments",
			"item": [
				{
					"name": "add",
					"request": {
						"auth": {
							"type": "bearer",
							"bearer": [
								{
									"key": "token",
									"value": "{{token}}",
									"type": "string"
								}
							]
						},
						"method": "POST",
						"header": [],
						"body": {
							"mode": "raw",
							"raw": "{\n    \"idCli\": 1,\n    \"subject\": \"Subject{{id}}\",\n    \"place\": \"Place{{id}}\",\n    \"description\": \"Description {{id}}\",\n    \"duration\": \"1 Hora\",\n    \"type\": \"Servicio\",\n    \"startingDate\": \"{{date}} {{InitialTime}}\",\n    \"endDate\": \"{{date}} {{finalTime}}\",\n    \"cancelDate\": null,\n    \"amount\":20.17\n}",
							"options": {
								"raw": {
									"language": "json"
								}
							}
						},
						"url": {
							"raw": "{{protocol}}://{{host}}{{contextPath}}/private/appointment/save",
							"protocol": "{{protocol}}",
							"host": [
								"{{host}}{{contextPath}}"
							],
							"path": [
								"private",
								"appointment",
								"save"
							]
						}
					},
					"response": []
				},
				{
					"name": "update",
					"request": {
						"auth": {
							"type": "bearer",
							"bearer": [
								{
									"key": "token",
									"value": "{{token}}",
									"type": "string"
								}
							]
						},
						"method": "POST",
						"header": [],
						"body": {
							"mode": "raw",
							"raw": "{\n    \"id\": 30,\n    \"idCli\": 1,\n    \"subject\": \"Subject modified{{id}}\",\n    \"place\": \"Place{{id}}\",\n    \"description\": \"Description {{id}}\",\n    \"duration\": \"1 Hora\",\n    \"type\": \"Servicio\",\n    \"startingDate\": \"{{date}} {{InitialTime}}\",\n    \"endDate\": \"{{date}} {{finalTime}}\",\n    \"cancelDate\": null,\n    \"amount\": 19.17\n}",
							"options": {
								"raw": {
									"language": "json"
								}
							}
						},
						"url": {
							"raw": "{{protocol}}://{{host}}{{contextPath}}/private/appointment/save",
							"protocol": "{{protocol}}",
							"host": [
								"{{host}}{{contextPath}}"
							],
							"path": [
								"private",
								"appointment",
								"save"
							]
						}
					},
					"response": []
				},
				{
					"name": "detail",
					"protocolProfileBehavior": {
						"disableBodyPruning": true
					},
					"request": {
						"auth": {
							"type": "bearer",
							"bearer": [
								{
									"key": "token",
									"value": "{{token}}",
									"type": "string"
								}
							]
						},
						"method": "GET",
						"header": [],
						"body": {
							"mode": "raw",
							"raw": "",
							"options": {
								"raw": {
									"language": "json"
								}
							}
						},
						"url": {
							"raw": "{{protocol}}://{{host}}{{contextPath}}/private/appointment/4",
							"protocol": "{{protocol}}",
							"host": [
								"{{host}}{{contextPath}}"
							],
							"path": [
								"private",
								"appointment",
								"4"
							]
						}
					},
					"response": []
				},
				{
					"name": "delete",
					"protocolProfileBehavior": {
						"disableBodyPruning": true
					},
					"request": {
						"auth": {
							"type": "bearer",
							"bearer": [
								{
									"key": "token",
									"value": "{{token}}",
									"type": "string"
								}
							]
						},
						"method": "GET",
						"header": [],
						"body": {
							"mode": "raw",
							"raw": "",
							"options": {
								"raw": {
									"language": "json"
								}
							}
						},
						"url": {
							"raw": "{{protocol}}://{{host}}{{contextPath}}/private/appointment/delete/4",
							"protocol": "{{protocol}}",
							"host": [
								"{{host}}{{contextPath}}"
							],
							"path": [
								"private",
								"appointment",
								"delete",
								"4"
							]
						}
					},
					"response": []
				},
				{
					"name": "List by dates",
					"request": {
						"auth": {
							"type": "bearer",
							"bearer": [
								{
									"key": "token",
									"value": "{{token}}",
									"type": "string"
								}
							]
						},
						"method": "POST",
						"header": [],
						"body": {
							"mode": "raw",
							"raw": "",
							"options": {
								"raw": {
									"language": "json"
								}
							}
						},
						"url": {
							"raw": "{{protocol}}://{{host}}{{contextPath}}/private/appointment/list?start=2021-12-01&end=2021-12-31",
							"protocol": "{{protocol}}",
							"host": [
								"{{host}}{{contextPath}}"
							],
							"path": [
								"private",
								"appointment",
								"list"
							],
							"query": [
								{
									"key": "start",
									"value": "2021-12-01"
								},
								{
									"key": "end",
									"value": "2021-12-31"
								}
							]
						}
					},
					"response": []
				},
				{
					"name": "List by idCli and dates",
					"request": {
						"auth": {
							"type": "bearer",
							"bearer": [
								{
									"key": "token",
									"value": "{{token}}",
									"type": "string"
								}
							]
						},
						"method": "POST",
						"header": [],
						"body": {
							"mode": "raw",
							"raw": "",
							"options": {
								"raw": {
									"language": "json"
								}
							}
						},
						"url": {
							"raw": "{{protocol}}://{{host}}{{contextPath}}/private/appointment/list/4?start=2021-12-01&end=2021-12-31",
							"protocol": "{{protocol}}",
							"host": [
								"{{host}}{{contextPath}}"
							],
							"path": [
								"private",
								"appointment",
								"list",
								"4"
							],
							"query": [
								{
									"key": "start",
									"value": "2021-12-01"
								},
								{
									"key": "end",
									"value": "2021-12-31"
								}
							]
						}
					},
					"response": []
				}
			]
		},
		{
			"name": "Clients",
			"item": [
				{
					"name": "add",
					"request": {
						"auth": {
							"type": "bearer",
							"bearer": [
								{
									"key": "token",
									"value": "{{token}}",
									"type": "string"
								}
							]
						},
						"method": "POST",
						"header": [],
						"body": {
							"mode": "raw",
							"raw": "{\n\"id\": null,    \n\"clientType\": \"particular\",\n\"name\": \"Javier2\",\n\"surname1\": \"Diaz\",\n\"surname2\": \"Abad\",\n\"asociatedCentre\": \"Vernys\",\n\"typeIdentification\": \"NIF\",\n\"identification\": \"08939333s\",\n\"streetType\": \"Calle\",\n\"street\": \"Av. Cerro Prieto 17\",\n\"streetNo\": \"11\",\n\"floor\": \"11\",\n\"letter\": \"L\",\n\"city\": \"mostoles\",\n\"cp\": \"28931\",\n\"province\": \"Madrid\",\n\"country\": \"España\",\n\"telephone\": \"656126515\",\n\"landline\": \"916454917\",\n\"email\": \"javisoftcorp@gmail.com\",\n\"web\": \"www.slaserybelleza.es\",\n\"otherInfo\": \"Otros Datos\",\n\"gdpr\": \"C:\\\\fakepath\\\\nueva.accdb\",\n\"creationDate\": null\n}",
							"options": {
								"raw": {
									"language": "json"
								}
							}
						},
						"url": {
							"raw": "{{protocol}}://{{host}}{{contextPath}}/private/client/save",
							"protocol": "{{protocol}}",
							"host": [
								"{{host}}{{contextPath}}"
							],
							"path": [
								"private",
								"client",
								"save"
							]
						}
					},
					"response": []
				},
				{
					"name": "update",
					"request": {
						"auth": {
							"type": "bearer",
							"bearer": [
								{
									"key": "token",
									"value": "{{token}}",
									"type": "string"
								}
							]
						},
						"method": "POST",
						"header": [],
						"body": {
							"mode": "raw",
							"raw": "{\n\"id\": 8,    \n\"clientType\": \"particular\",\n\"name\": \"Javier3\",\n\"surname1\": \"Diaz\",\n\"surname2\": \"Abad\",\n\"asociatedCentre\": \"Vernys\",\n\"typeIdentification\": \"NIF\",\n\"identification\": \"08939333s\",\n\"streetType\": \"Calle\",\n\"street\": \"Av. Cerro Prieto 17\",\n\"streetNo\": \"11\",\n\"floor\": \"11\",\n\"letter\": \"L\",\n\"city\": \"mostoles\",\n\"cp\": \"28931\",\n\"province\": \"Madrid\",\n\"country\": \"España\",\n\"telephone\": \"656126515\",\n\"landline\": \"916454917\",\n\"email\": \"javisoftcorp@gmail.com\",\n\"web\": \"www.slaserybelleza.es\",\n\"otherInfo\": \"Otros Datos\",\n\"gdpr\": \"C:\\\\fakepath\\\\nueva.accdb\",\n\"creationDate\": null\n}",
							"options": {
								"raw": {
									"language": "json"
								}
							}
						},
						"url": {
							"raw": "{{protocol}}://{{host}}{{contextPath}}/private/client/save",
							"protocol": "{{protocol}}",
							"host": [
								"{{host}}{{contextPath}}"
							],
							"path": [
								"private",
								"client",
								"save"
							]
						}
					},
					"response": []
				},
				{
					"name": "detail",
					"protocolProfileBehavior": {
						"disableBodyPruning": true
					},
					"request": {
						"auth": {
							"type": "bearer",
							"bearer": [
								{
									"key": "token",
									"value": "{{token}}",
									"type": "string"
								}
							]
						},
						"method": "GET",
						"header": [],
						"body": {
							"mode": "raw",
							"raw": "",
							"options": {
								"raw": {
									"language": "json"
								}
							}
						},
						"url": {
							"raw": "{{protocol}}://{{host}}{{contextPath}}/private/client/11",
							"protocol": "{{protocol}}",
							"host": [
								"{{host}}{{contextPath}}"
							],
							"path": [
								"private",
								"client",
								"11"
							]
						}
					},
					"response": []
				},
				{
					"name": "delete",
					"protocolProfileBehavior": {
						"disableBodyPruning": true
					},
					"request": {
						"auth": {
							"type": "bearer",
							"bearer": [
								{
									"key": "token",
									"value": "{{token}}",
									"type": "string"
								}
							]
						},
						"method": "GET",
						"header": [],
						"body": {
							"mode": "raw",
							"raw": "",
							"options": {
								"raw": {
									"language": "json"
								}
							}
						},
						"url": {
							"raw": "{{protocol}}://{{host}}{{contextPath}}/private/client/delete/4",
							"protocol": "{{protocol}}",
							"host": [
								"{{host}}{{contextPath}}"
							],
							"path": [
								"private",
								"client",
								"delete",
								"4"
							]
						}
					},
					"response": []
				},
				{
					"name": "List centres",
					"request": {
						"auth": {
							"type": "bearer",
							"bearer": [
								{
									"key": "token",
									"value": "{{token}}",
									"type": "string"
								}
							]
						},
						"method": "POST",
						"header": [],
						"body": {
							"mode": "raw",
							"raw": "",
							"options": {
								"raw": {
									"language": "json"
								}
							}
						},
						"url": {
							"raw": "{{protocol}}://{{host}}{{contextPath}}/private/client/list/centres",
							"protocol": "{{protocol}}",
							"host": [
								"{{host}}{{contextPath}}"
							],
							"path": [
								"private",
								"client",
								"list",
								"centres"
							]
						}
					},
					"response": []
				},
				{
					"name": "List client by centre",
					"request": {
						"auth": {
							"type": "bearer",
							"bearer": [
								{
									"key": "token",
									"value": "{{token}}",
									"type": "string"
								}
							]
						},
						"method": "POST",
						"header": [],
						"body": {
							"mode": "raw",
							"raw": "",
							"options": {
								"raw": {
									"language": "json"
								}
							}
						},
						"url": {
							"raw": "{{protocol}}://{{host}}{{contextPath}}/private/client/list/Vernys",
							"protocol": "{{protocol}}",
							"host": [
								"{{host}}{{contextPath}}"
							],
							"path": [
								"private",
								"client",
								"list",
								"Vernys"
							]
						}
					},
					"response": []
				},
				{
					"name": "List by filter",
					"request": {
						"auth": {
							"type": "bearer",
							"bearer": [
								{
									"key": "token",
									"value": "{{token}}",
									"type": "string"
								}
							]
						},
						"method": "POST",
						"header": [],
						"body": {
							"mode": "raw",
							"raw": "{\n\"clientType\": \"particular\",\n\"name\": \"Javier2\",\n\"surname1\": \"Diaz\",\n\"surname2\": \"Abad\",\n\"asociatedCentre\": \"Vernys\",\n\"identification\": \"08939333s\",\n\"city\": \"mostoles\",\n\"cp\": \"28931\",\n\"province\": \"Madrid\",\n\"country\": \"España\",\n\"telephone\": \"656126515\",\n\"landline\": \"916454917\",\n\"email\": \"javisoftcorp@gmail.com\",\n\"web\": \"www.slaserybelleza.es\",\n\"otherInfo\": \"Otros Datos\",\n\"gdpr\": \"C:\\\\fakepath\\\\nueva.accdb\"\n}",
							"options": {
								"raw": {
									"language": "json"
								}
							}
						},
						"url": {
							"raw": "{{protocol}}://{{host}}{{contextPath}}/private/client/list/search",
							"protocol": "{{protocol}}",
							"host": [
								"{{host}}{{contextPath}}"
							],
							"path": [
								"private",
								"client",
								"list",
								"search"
							]
						}
					},
					"response": []
				}
			]
		},
		{
			"name": "Email",
			"item": [
				{
					"name": "send",
					"request": {
						"auth": {
							"type": "noauth"
						},
						"method": "POST",
						"header": [],
						"body": {
							"mode": "raw",
							"raw": "{\n    \"email\": \"javisoftcorp@gmail.com\",\n    \"subject\": \"correo de slaser company desde postman\",\n    \"content\": \"Esto es la prueba guais\"\n}",
							"options": {
								"raw": {
									"language": "json"
								}
							}
						},
						"url": {
							"raw": "{{protocol}}://{{host}}{{contextPath}}/public/email/send",
							"protocol": "{{protocol}}",
							"host": [
								"{{host}}{{contextPath}}"
							],
							"path": [
								"public",
								"email",
								"send"
							]
						}
					},
					"response": []
				}
			]
		},
		{
			"name": "User",
			"item": [
				{
					"name": "save",
					"request": {
						"auth": {
							"type": "bearer",
							"bearer": [
								{
									"key": "token",
									"value": "{{token}}",
									"type": "string"
								}
							]
						},
						"method": "POST",
						"header": [],
						"body": {
							"mode": "raw",
							"raw": "{\n    \"userName\": \"user{{id}}\",\n    \"password\": \"psw{{id}}\",\n    \"userFullName\": \"{{id}}FullName\",\n    \"role\": \"USER\",\n    \"retries\": 0\n}",
							"options": {
								"raw": {
									"language": "json"
								}
							}
						},
						"url": {
							"raw": "{{protocol}}://{{host}}{{contextPath}}/private/user/save",
							"protocol": "{{protocol}}",
							"host": [
								"{{host}}{{contextPath}}"
							],
							"path": [
								"private",
								"user",
								"save"
							]
						}
					},
					"response": []
				},
				{
					"name": "login",
					"request": {
						"auth": {
							"type": "noauth"
						},
						"method": "POST",
						"header": [],
						"body": {
							"mode": "raw",
							"raw": "{\n    \"user\": \"javi\",\n    \"password\": \"javi\"\n}",
							"options": {
								"raw": {
									"language": "json"
								}
							}
						},
						"url": {
							"raw": "{{protocol}}://{{host}}{{contextPath}}/login",
							"protocol": "{{protocol}}",
							"host": [
								"{{host}}{{contextPath}}"
							],
							"path": [
								"login"
							]
						}
					},
					"response": []
				},
				{
					"name": "detail",
					"protocolProfileBehavior": {
						"disableBodyPruning": true
					},
					"request": {
						"auth": {
							"type": "bearer",
							"bearer": [
								{
									"key": "token",
									"value": "{{token}}",
									"type": "string"
								}
							]
						},
						"method": "GET",
						"header": [],
						"body": {
							"mode": "raw",
							"raw": "",
							"options": {
								"raw": {
									"language": "json"
								}
							}
						},
						"url": {
							"raw": "{{protocol}}://{{host}}{{contextPath}}/private/user/b",
							"protocol": "{{protocol}}",
							"host": [
								"{{host}}{{contextPath}}"
							],
							"path": [
								"private",
								"user",
								"b"
							]
						}
					},
					"response": []
				},
				{
					"name": "delete",
					"protocolProfileBehavior": {
						"disableBodyPruning": true
					},
					"request": {
						"auth": {
							"type": "bearer",
							"bearer": [
								{
									"key": "token",
									"value": "{{token}}",
									"type": "string"
								}
							]
						},
						"method": "GET",
						"header": [],
						"body": {
							"mode": "raw",
							"raw": "",
							"options": {
								"raw": {
									"language": "json"
								}
							}
						},
						"url": {
							"raw": "{{protocol}}://{{host}}{{contextPath}}/private/user/delete/a",
							"protocol": "{{protocol}}",
							"host": [
								"{{host}}{{contextPath}}"
							],
							"path": [
								"private",
								"user",
								"delete",
								"a"
							]
						}
					},
					"response": []
				}
			]
		},
		{
			"name": "Ping",
			"item": [
				{
					"name": "ping",
					"protocolProfileBehavior": {
						"disableBodyPruning": true
					},
					"request": {
						"auth": {
							"type": "noauth"
						},
						"method": "GET",
						"header": [],
						"body": {
							"mode": "raw",
							"raw": "",
							"options": {
								"raw": {
									"language": "json"
								}
							}
						},
						"url": {
							"raw": "{{protocol}}://{{host}}{{contextPath}}/ping",
							"protocol": "{{protocol}}",
							"host": [
								"{{host}}{{contextPath}}"
							],
							"path": [
								"ping"
							]
						}
					},
					"response": []
				}
			]
		},
		{
			"name": "Session_DEPRECATED",
			"item": [
				{
					"name": "session + cookies",
					"request": {
						"auth": {
							"type": "noauth"
						},
						"method": "POST",
						"header": [],
						"body": {
							"mode": "raw",
							"raw": "",
							"options": {
								"raw": {
									"language": "json"
								}
							}
						},
						"url": {
							"raw": "http://localhost:8080/api/private/cookies?username=javiusername",
							"protocol": "http",
							"host": [
								"localhost"
							],
							"port": "8080",
							"path": [
								"api",
								"private",
								"cookies"
							],
							"query": [
								{
									"key": "username",
									"value": "javiusername"
								}
							]
						}
					},
					"response": []
				},
				{
					"name": "session",
					"request": {
						"auth": {
							"type": "noauth"
						},
						"method": "POST",
						"header": [],
						"body": {
							"mode": "raw",
							"raw": "",
							"options": {
								"raw": {
									"language": "json"
								}
							}
						},
						"url": {
							"raw": "http://localhost:8080/api/private/session?attributeName=user&attributeValue=Javi",
							"protocol": "http",
							"host": [
								"localhost"
							],
							"port": "8080",
							"path": [
								"api",
								"private",
								"session"
							],
							"query": [
								{
									"key": "attributeName",
									"value": "user"
								},
								{
									"key": "attributeValue",
									"value": "Javi"
								}
							]
						}
					},
					"response": []
				}
			]
		}
	]
}