{
	"id": "7eaadfae-9bcf-47d6-9886-a4d26e77bc6f",
	"name": "SlaserENV-PRO",
	"values": [
		{
			"key": "id",
			"value": "1",
			"enabled": true
		},
		{
			"key": "clientId",
			"value": "1",
			"enabled": true
		},
		{
			"key": "date",
			"value": "2021-12-20",
			"enabled": true
		},
		{
			"key": "InitialTime",
			"value": "01:02",
			"enabled": true
		},
		{
			"key": "finalTime",
			"value": "02:02",
			"enabled": true
		},
		{
			"key": "token",
			"value": "",
			"enabled": true
		},
		{
			"key": "host",
			"value": "www.slaserybelleza.es",
			"enabled": true
		},
		{
			"key": "contextPath",
			"value": "/api",
			"enabled": true
		},
		{
			"key": "protocol",
			"value": "https",
			"enabled": true
		}
	],
	"_postman_variable_scope": "environment",
	"_postman_exported_at": "2021-12-19T18:44:23.379Z",
	"_postman_exported_using": "Postman/9.4.0"
}